{
  "images" : [
    {
      "filename" : "src=http---attach.bbs.miui.com-forum-201410-25-220832wlwzqq6ble9ql6rd.jpg&refer=http---attach.bbs.miui.com&app=2002&size=f9999,10000&q=a80&n=0&g=0n&fmt=jpeg.jpeg",
      "idiom" : "universal",
      "scale" : "1x"
    },
    {
      "idiom" : "universal",
      "scale" : "2x"
    },
    {
      "idiom" : "universal",
      "scale" : "3x"
    }
  ],
  "info" : {
    "author" : "xcode",
    "version" : 1
  }
}
